{
    "tooltip": {
        "color": [200, 200, 200],
        "padding": 8,
        "corner": 4,
        "border": "color",
        "border-width": 4,
        "background": "color",
        "border-color": [120, 120, 120],
        "background-color": [40, 40, 40],
        "font-size": "small",
        "pos-list": [
            ["relative", ["right", "bottom"], [10, 10]],
            ["relative", ["right", "top"], [10, 10]],
            ["relative", ["left", "bottom"], [10, 10]],
            ["relative", ["left", "top"], [10, 10]],
            ["absolute", ["right", "top"], [10, 10]],
            ["absolute", ["left", "top"], [10, 10]],
            ["absolute", ["right", "bottom"], [10, 10]],
            ["absolute", ["left", "bottom"], [10, 10]]
        ]
    },
    "info_board": {
        "text-board-rows": 5,
        "size": ["100%", null],
        "padding": 10,
        "color": [255, 255, 0],
        "vspacing": 5,
        "pos": ["absolute", ["left", "bottom"], [0, 0]]
    }
}
