{
    "Window": {
        "corner": 8,
        "padding": 10,
        "border": "color",
        "border-width": 4,
        "border-color": [100, 100, 100],
        "background": "color",
        "background-color": [20, 20, 20]
    },
    "Window:event=on-open": {
        "animation": "fadein",
        "animation-arguments": {
            "step": 0.2
        }
    },
    "Window:event=on-close": {
        "animation": "fadeout",
        "animation-arguments": {
            "step": -0.2
        }
    },
    "Frame": {
        "corner": 8,
        "padding": 10,
        "border": "color",
        "border-width": 4,
        "border-color": [100, 100, 100],
        "frame-bar-color": [200, 200, 200],
        "frame-bar-background-color": [80, 80, 80]
    },
    "InputText": {
        "corner": 4,
        "padding": 4,
        "border": "color",
        "border-width": 4,
        "border-color": [150, 150, 150],
        "size": [300, null]
    },
    "InputText:status=focus": {
        "color": [220, 220, 20],
        "border-color": [250, 30, 30]
    },
    "Gauge": {
        "border": "color",
        "border-width": 3,
        "size": [200, 30],
        "background": "color",
        "color": [0, 100, 0],
        "background-color": [200, 50, 50],
        "border-color": [255, 255, 255],
        "gauge-label-class": "gauge_label"
    },
    "Rule": {
        "color": [100, 100, 100]
    },
    "Select": {
        "orientation": "horizontal"
    },
    "Checkbox": {
        "corner": 4,
        "padding": 2,
        "border": "color",
        "border-width": 4,
        "color": [172, 4, 4],
        "border-color": [172, 4, 4],
        "size": [24, 24]
    },
    "Checkbox:status=focus": {
        "color": [148, 0, 211],
        "border-color": [148, 0, 211]
    },
    "Range": {
        "range-label-class": "range_label",
        "range-bullet-color": [172, 4, 4],
        "range-bar-color": [118, 3, 3]
    },
    "Range:status=focus": {
        "range-bullet-color": [148, 0, 211],
        "range-bar-color": [120, 0, 180]
    }
}
