{
    "shell_input": {
        "size": ["100%", null],
        "padding": 2,
        "border": "color",
        "border-width": 4,
        "border-color": [50, 50, 50],
        "background": "color",
        "background-color": [0, 0, 0],
        "input-text-max-size": null,
        "color": [50, 50, 50]
    },
    "shell_input:status=focus": {
        "color": [250, 120, 120]
    },
    "tooltip": {
        "color": [200, 200, 200],
        "padding": 8,
        "corner": 4,
        "border": "color",
        "border-width": 4,
        "background": "color",
        "border-color": [120, 120, 120],
        "background-color": [40, 40, 40],
        "font-size": "small",
        "pos": ["absolute", ["right", "bottom"], [10, 10]]
    }
}
